…
The type of wealth which were inherited has the highest ranking median,
so those people might have decent positions on the wealth board.  
 

### It is reasonable that the environment of regions will affect people’s lives. Better regions may have more rich people. It is possible that the citizenship will be related to the rank.

``` r
counts <- billionaires %>% 
  filter(year == 2014) %>% 
  count(location.citizenship, sort=TRUE)
counts
```

    ## # A tibble: 69 x 2
    ##    location.citizenship     n
    ##    <chr>                <int>
    ##  1 United States          499
    ##  2 China                  152
    ##  3 Russia                 111
    ##  4 Germany                 85
    ##  5 Brazil                  65
    ##  6 India                   56
    ##  7 United Kingdom          47
    ##  8 Hong Kong               45
    ##  9 France                  43
    ## 10 Italy                   35
    ## # ... with 59 more rows
…
